xoan.martin	Xoán	Martín Gómez	Enxeñaría de Computadores	SI	6,4231
eduardo.ebarro	Eduardo	Espiñeira Barro	Enxeñaría do Software	SI	7,9357
isa.adolfo	Isabel	Adolfo Núñez	Computación	SI	6,5211
m.otorres	Míriam	Ocampo Torres	Computación	SI	5,0778
yago.quintanss	Yago Andreu	Quintáns Santos	Enxeñaría do Software	SI	7,09
s.vfarina	Simón	Vázquez Fariña	Enxeñaría do Software	SI	6,2559
m.gonzalez.vinas	María	González Viñas	Sistemas de Información	SI	8,012
adan.martinez.g	Adán	Adán Martínez García	Tecnoloxías da Información	SI	5,3588
alejandra.budino	Alejandra	Budiño Rey	Tecnoloxías da Información	SI	6,4853
erica.agomez	Erica	Álvarez Gómez	Tecnoloxías da Información	SI	6,5371
a.pedreiral	Alfonso	Pedreira Lusco	Sistemas de Información	SI	5,7037
